Chapter 5 Community composition | AlberdiLab | EHI Squamate Rodent metagenomics
…
phylum_summary %>%
    group_by(phylum) %>%
    summarise(total_mean=mean(relabun*100, na.rm=T),
              total_sd=sd(relabun*100, na.rm=T),
              squamate_mean=mean(relabun[host_order.x=="Squamate"]*100, na.rm=T),
              squamate_sd=sd(relabun[host_order.x=="Squamate"]*100, na.rm=T),
              rodent_mean=mean(relabun[host_order.x=="Rodentia"]*100, na.rm=T),
              rodent_sd=sd(relabun[host_order.x=="Rodentia"]*100, na.rm=T)) %>%
    mutate(total=str_c(round(total_mean,3),"±",round(total_sd,3)),
           squamate=str_c(round(squamate_mean,3),"±",round(squamate_sd,3)),
           rodent=str_c(round(rodent_mean,3),"±",round(rodent_sd,3))) %>% 
    arrange(-total_mean) %>% 
    dplyr::select(phylum,total,squamate,rodent)

# A tibble: 22 × 4
   phylum            total         squamate rodent       
   <chr>             <chr>         <chr>    <chr>        
 1 Bacteroidota      41.128±21.059 <NA>     43.173±23.36 
 2 Bacillota_A       39.244±19.005 <NA>     40.173±21.599
 3 Bacillota         5.082±8.455   <NA>     3.117±3.911  
 4 Pseudomonadota    4.585±8.917   <NA>     2.834±8.243  
 5 Spirochaetota     2.309±6.869   <NA>     4.271±9.532  
 6 Campylobacterota  2.291±5.316   <NA>     2.948±3.779  
 7 Desulfobacterota  1.318±1.648   <NA>     0.526±0.996  
 8 Verrucomicrobiota 1.284±3.329   <NA>     0.426±1.483  
 9 Cyanobacteriota   0.641±1.403   <NA>     0.672±1.691  
10 Bacillota_C       0.641±0.967   <NA>     0.36±0.726   
# ℹ 12 more rows
…
